[
{"node": 1,"parentNode": 0, "sort": 0,"type": "country", "status": 1 ,"name": "Afghanistan", "keyword": "" ,"metaTitle": "","metaDescription": "","internationalName": "", "attributes":{"iso": "mobal", "iso3": "AFG", "numCode": 4, "phoneCode": 93}},
{"node": 2,"parentNode": 0, "sort": 1,"type": "country", "status": 1 ,"name": "Albania", "keyword": "" ,"metaTitle": "","metaDescription": "","internationalName": "", "attributes":{"iso": "AL", "iso3": "ALB", "numCode": 8, "phoneCode": 355}},
{"node": 3,"parentNode": 0, "sort": 2,"type": "country", "status": 1 ,"name": "Algeria", "keyword": "" ,"metaTitle": "","metaDescription": "","internationalName": "", "attributes":{"iso": "DZ", "iso3": "DZA", "numCode": 12, "phoneCode": 213}},
{"node": 4,"parentNode": 0, "sort": 3,"type": "country", "status": 1 ,"name": "American Samoa", "keyword": "" ,"metaTitle": "","metaDescription": "","internationalName": "", "attributes":{"iso": "AS", "iso3": "ASM", "numCode": 16, "phoneCode": 1684}},
{"node": 5,"parentNode": 0, "sort": 4,"type": "country", "status": 1 ,"name": "Andorra", "keyword": "" ,"metaTitle": "","metaDescription": "","internationalName": "", "attributes":{"iso": "AD", "iso3": "AND", "numCode": 20, "phoneCode": 376}},
{"node": 6,"parentNode": 0, "sort": 5,"type": "country", "status": 1 ,"name": "Angola", "keyword": "" ,"metaTitle": "","metaDescription": "","internationalName": "", "attributes":{"iso": "AO", "iso3": "AGO", "numCode": 24, "phoneCode": 244}},
{"node": 7,"parentNode": 0, "sort": 6,"type": "country", "status": 1 ,"name": "Anguilla", "keyword": "" ,"metaTitle": "","metaDescription": "","internationalName": "", "attributes":{"iso": "AI", "iso3": "AIA", "numCode": 660, "phoneCode": 1264}},
{"node": 8,"parentNode": 0, "sort": 7,"type": "country", "status": 1 ,"name": "Antarctica", "keyword": "" ,"metaTitle": "","metaDescription": "","internationalName": "", "attributes":{"iso": "AQ", "iso3": null, "numCode":  null, "phoneCode": 0}},
{"node": 9,"parentNode": 0, "sort": 8,"type": "country", "status": 1 ,"name": "Antigua and Barbuda", "keyword": "" ,"metaTitle": "","metaDescription": "","internationalName": "", "attributes":{"iso": "AG", "iso3": "ATG", "numCode": 28, "phoneCode": 1268}},
{"node": 10,"parentNode": 0, "sort":90,"type": "country", "status": 1 ,"name": "Argentina", "keyword": "" ,"metaTitle": "","metaDescription": "","internationalName": "", "attributes":{"iso": "AR", "iso3": "ARG", "numCode": 32, "phoneCode": 54}},
{"node": 11,"parentNode": 0, "sort": 10,"type": "country", "status": 1 ,"name": "Armenia", "keyword": "" ,"metaTitle": "","metaDescription": "","internationalName": "", "attributes":{"iso": "AM", "iso3": "ARM", "numCode": 51, "phoneCode": 374}},
{"node": 12,"parentNode": 0, "sort": 11,"type": "country", "status": 1 ,"name": "Aruba", "keyword": "" ,"metaTitle": "","metaDescription": "","internationalName": "", "attributes":{"iso": "AW", "iso3": "ABW", "numCode": 533, "phoneCode": 297}},
{"node": 13,"parentNode": 0, "sort": 12,"type": "country", "status": 1 ,"name": "Australia", "keyword": "" ,"metaTitle": "","metaDescription": "","internationalName": "", "attributes":{"iso": "AU", "iso3": "AUS", "numCode": 36, "phoneCode": 61}},
{"node": 14,"parentNode": 0, "sort": 13,"type": "country", "status": 1 ,"name": "Austria", "keyword": "" ,"metaTitle": "","metaDescription": "","internationalName": "", "attributes":{"iso": "AT", "iso3": "AUT", "numCode": 40, "phoneCode": 43}},
{"node": 15,"parentNode": 0, "sort": 14,"type": "country", "status": 1 ,"name": "Azerbaijan", "keyword": "" ,"metaTitle": "","metaDescription": "","internationalName": "", "attributes":{"iso": "AZ", "iso3": "AZE", "numCode": 31, "phoneCode": 994}},
{"node": 16,"parentNode": 0, "sort": 15,"type": "country", "status": 1 ,"name": "Bahamas", "keyword": "" ,"metaTitle": "","metaDescription": "","internationalName": "", "attributes":{"iso": "BS", "iso3": "BHS", "numCode": 44, "phoneCode": 1242}},
{"node": 17,"parentNode": 0, "sort": 16,"type": "country", "status": 1 ,"name": "Bahrain", "keyword": "" ,"metaTitle": "","metaDescription": "","internationalName": "", "attributes":{"iso": "BH", "iso3": "BHR", "numCode": 48, "phoneCode": 973}},
{"node": 18,"parentNode": 0, "sort": 17,"type": "country", "status": 1 ,"name": "Bangladesh", "keyword": "" ,"metaTitle": "","metaDescription": "","internationalName": "", "attributes":{"iso": "BD", "iso3": "BGD", "numCode": 50, "phoneCode": 880}},
{"node": 19,"parentNode": 0, "sort": 18,"type": "country", "status": 1 ,"name": "Barbados", "keyword": "" ,"metaTitle": "","metaDescription": "","internationalName": "", "attributes":{"iso": "BB", "iso3": "BRB", "numCode": 52, "phoneCode": 1246}},
{"node": 20,"parentNode": 0, "sort": 19,"type": "country", "status": 1 ,"name": "Belarus", "keyword": "" ,"metaTitle": "","metaDescription": "","internationalName": "", "attributes":{"iso": "BY", "iso3": "BLR", "numCode": 112, "phoneCode": 375}},
{"node": 21,"parentNode": 0, "sort": 20,"type": "country", "status": 1 ,"name": "Belgium", "keyword": "" ,"metaTitle": "","metaDescription": "","internationalName": "", "attributes":{"iso": "BE", "iso3": "BEL", "numCode": 56, "phoneCode": 32}},
{"node": 22,"parentNode": 0, "sort": 21,"type": "country", "status": 1 ,"name": "Belize", "keyword": "" ,"metaTitle": "","metaDescription": "","internationalName": "", "attributes":{"iso": "BZ", "iso3": "BLZ", "numCode": 84, "phoneCode": 501}},
{"node": 23,"parentNode": 0, "sort": 22,"type": "country", "status": 1 ,"name": "Benin", "keyword": "" ,"metaTitle": "","metaDescription": "","internationalName": "", "attributes":{"iso": "BJ", "iso3": "BEN", "numCode": 204, "phoneCode": 229}},
{"node": 24,"parentNode": 0, "sort": 23,"type": "country", "status": 1 ,"name": "Bermuda", "keyword": "" ,"metaTitle": "","metaDescription": "","internationalName": "", "attributes":{"iso": "BM", "iso3": "BMU", "numCode": 60, "phoneCode": 1441}},
{"node": 25,"parentNode": 0, "sort": 24,"type": "country", "status": 1 ,"name": "Bhutan", "keyword": "" ,"metaTitle": "","metaDescription": "","internationalName": "", "attributes":{"iso": "BT", "iso3": "BTN", "numCode": 64, "phoneCode": 975}},
{"node": 26,"parentNode": 0, "sort": 25,"type": "country", "status": 1 ,"name": "Bolivia", "keyword": "" ,"metaTitle": "","metaDescription": "","internationalName": "", "attributes":{"iso": "BO", "iso3": "BOL", "numCode": 68, "phoneCode": 591}},
{"node": 27,"parentNode": 0, "sort": 26,"type": "country", "status": 1 ,"name": "Bosnia and Herzegovina", "keyword": "" ,"metaTitle": "","metaDescription": "","internationalName": "", "attributes":{"iso": "BA", "iso3": "BIH", "numCode": 70, "phoneCode": 387}},
{"node": 28,"parentNode": 0, "sort": 27,"type": "country", "status": 1 ,"name": "Botswana", "keyword": "" ,"metaTitle": "","metaDescription": "","internationalName": "", "attributes":{"iso": "BW", "iso3": "BWA", "numCode": 72, "phoneCode": 267}},
{"node": 29,"parentNode": 0, "sort": 28,"type": "country", "status": 1 ,"name": "Bouvet Island", "keyword": "" ,"metaTitle": "","metaDescription": "","internationalName": "", "attributes":{"iso": "BV", "iso3": null, "numCode":  null, "phoneCode": 0}},
{"node": 30,"parentNode": 0, "sort": 29,"type": "country", "status": 1 ,"name": "Brazil", "keyword": "" ,"metaTitle": "","metaDescription": "","internationalName": "", "attributes":{"iso": "BR", "iso3": "BRA", "numCode": 76, "phoneCode": 55}},
{"node": 31,"parentNode": 0, "sort": 30,"type": "country", "status": 1 ,"name": "British Indian Ocean Territory", "keyword": "" ,"metaTitle": "","metaDescription": "","internationalName": "", "attributes":{"iso": "IO", "iso3": null, "numCode":  null, "phoneCode": 246}},
{"node": 32,"parentNode": 0, "sort": 31,"type": "country", "status": 1 ,"name": "Brunei Darussalam", "keyword": "" ,"metaTitle": "","metaDescription": "","internationalName": "", "attributes":{"iso": "BN", "iso3": "BRN", "numCode": 96, "phoneCode": 673}},
{"node": 33,"parentNode": 0, "sort": 32,"type": "country", "status": 1 ,"name": "Bulgaria", "keyword": "" ,"metaTitle": "","metaDescription": "","internationalName": "", "attributes":{"iso": "BG", "iso3": "BGR", "numCode": 100, "phoneCode": 359}},
{"node": 34,"parentNode": 0, "sort": 33,"type": "country", "status": 1 ,"name": "Burkina Faso", "keyword": "" ,"metaTitle": "","metaDescription": "","internationalName": "", "attributes":{"iso": "BF", "iso3": "BFA", "numCode": 854, "phoneCode": 226}},
{"node": 35,"parentNode": 0, "sort": 34,"type": "country", "status": 1 ,"name": "Burundi", "keyword": "" ,"metaTitle": "","metaDescription": "","internationalName": "", "attributes":{"iso": "BI", "iso3": "BDI", "numCode": 108, "phoneCode": 257}},
{"node": 36,"parentNode": 0, "sort": 35,"type": "country", "status": 1 ,"name": "Cambodia", "keyword": "" ,"metaTitle": "","metaDescription": "","internationalName": "", "attributes":{"iso": "KH", "iso3": "KHM", "numCode": 116, "phoneCode": 855}},
{"node": 37,"parentNode": 0, "sort": 36,"type": "country", "status": 1 ,"name": "Cameroon", "keyword": "" ,"metaTitle": "","metaDescription": "","internationalName": "", "attributes":{"iso": "CM", "iso3": "CMR", "numCode": 120, "phoneCode": 237}},
{"node": 38,"parentNode": 0, "sort": 37,"type": "country", "status": 1 ,"name": "Canada", "keyword": "" ,"metaTitle": "","metaDescription": "","internationalName": "", "attributes":{"iso": "CA", "iso3": "CAN", "numCode": 124, "phoneCode": 1}},
{"node": 39,"parentNode": 0, "sort": 38,"type": "country", "status": 1 ,"name": "Cape Verde", "keyword": "" ,"metaTitle": "","metaDescription": "","internationalName": "", "attributes":{"iso": "CV", "iso3": "CPV", "numCode": 132, "phoneCode": 238}},
{"node": 40,"parentNode": 0, "sort": 39,"type": "country", "status": 1 ,"name": "Cayman Islands", "keyword": "" ,"metaTitle": "","metaDescription": "","internationalName": "", "attributes":{"iso": "KY", "iso3": "CYM", "numCode": 136, "phoneCode": 1345}},
{"node": 41,"parentNode": 0, "sort": 40,"type": "country", "status": 1 ,"name": "Central African Republic", "keyword": "" ,"metaTitle": "","metaDescription": "","internationalName": "", "attributes":{"iso": "CF", "iso3": "CAF", "numCode": 140, "phoneCode": 236}},
{"node": 42,"parentNode": 0, "sort": 41,"type": "country", "status": 1 ,"name": "Chad", "keyword": "" ,"metaTitle": "","metaDescription": "","internationalName": "", "attributes":{"iso": "TD", "iso3": "TCD", "numCode": 148, "phoneCode": 235}},
{"node": 43,"parentNode": 0, "sort": 42,"type": "country", "status": 1 ,"name": "Chile", "keyword": "" ,"metaTitle": "","metaDescription": "","internationalName": "", "attributes":{"iso": "CL", "iso3": "CHL", "numCode": 152, "phoneCode": 56}},
{"node": 44,"parentNode": 0, "sort": 43,"type": "country", "status": 1 ,"name": "China", "keyword": "" ,"metaTitle": "","metaDescription": "","internationalName": "", "attributes":{"iso": "CN", "iso3": "CHN", "numCode": 156, "phoneCode": 86}},
{"node": 45,"parentNode": 0, "sort": 44,"type": "country", "status": 1 ,"name": "Christmas Island", "keyword": "" ,"metaTitle": "","metaDescription": "","internationalName": "", "attributes":{"iso": "CX", "iso3": null, "numCode":  null, "phoneCode": 61}},
{"node": 46,"parentNode": 0, "sort": 45,"type": "country", "status": 1 ,"name": "Cocos (Keeling) Islands", "keyword": "" ,"metaTitle": "","metaDescription": "","internationalName": "", "attributes":{"iso": "CC", "iso3": null, "numCode":  null, "phoneCode": 672}},
{"node": 47,"parentNode": 0, "sort": 46,"type": "country", "status": 1 ,"name": "Colombia", "keyword": "" ,"metaTitle": "","metaDescription": "","internationalName": "", "attributes":{"iso": "CO", "iso3": "COL", "numCode": 170, "phoneCode": 57}},
{"node": 48,"parentNode": 0, "sort": 47,"type": "country", "status": 1 ,"name": "Comoros", "keyword": "" ,"metaTitle": "","metaDescription": "","internationalName": "", "attributes":{"iso": "KM", "iso3": "COM", "numCode": 174, "phoneCode": 269}},
{"node": 49,"parentNode": 0, "sort": 48,"type": "country", "status": 1 ,"name": "Congo", "keyword": "" ,"metaTitle": "","metaDescription": "","internationalName": "", "attributes":{"iso": "CG", "iso3": "COG", "numCode": 178, "phoneCode": 242}},
{"node": 50,"parentNode": 0, "sort": 49,"type": "country", "status": 1 ,"name": "Congo, the Democratic Republic of the", "keyword": "" ,"metaTitle": "","metaDescription": "","internationalName": "", "attributes":{"iso": "CD", "iso3": "COD", "numCode": 180, "phoneCode": 242}},
{"node": 51,"parentNode": 0, "sort": 50,"type": "country", "status": 1 ,"name": "Cook Islands", "keyword": "" ,"metaTitle": "","metaDescription": "","internationalName": "", "attributes":{"iso": "CK", "iso3": "COK", "numCode": 184, "phoneCode": 682}},
{"node": 52,"parentNode": 0, "sort": 51,"type": "country", "status": 1 ,"name": "Costa Rica", "keyword": "" ,"metaTitle": "","metaDescription": "","internationalName": "", "attributes":{"iso": "CR", "iso3": "CRI", "numCode": 188, "phoneCode": 506}},
{"node": 53,"parentNode": 0, "sort": 52,"type": "country", "status": 1 ,"name": "Cote D'Ivoire", "keyword": "" ,"metaTitle": "","metaDescription": "","internationalName": "", "attributes":{"iso": "CI", "iso3": "CIV", "numCode": 384, "phoneCode": 225}},
{"node": 54,"parentNode": 0, "sort": 53,"type": "country", "status": 1 ,"name": "Croatia", "keyword": "" ,"metaTitle": "","metaDescription": "","internationalName": "", "attributes":{"iso": "HR", "iso3": "HRV", "numCode": 191, "phoneCode": 385}},
{"node": 55,"parentNode": 0, "sort": 54,"type": "country", "status": 1 ,"name": "Cuba", "keyword": "" ,"metaTitle": "","metaDescription": "","internationalName": "", "attributes":{"iso": "CU", "iso3": "CUB", "numCode": 192, "phoneCode": 53}},
{"node": 56,"parentNode": 0, "sort": 55,"type": "country", "status": 1 ,"name": "Cyprus", "keyword": "" ,"metaTitle": "","metaDescription": "","internationalName": "", "attributes":{"iso": "CY", "iso3": "CYP", "numCode": 196, "phoneCode": 357}},
{"node": 57,"parentNode": 0, "sort": 56,"type": "country", "status": 1 ,"name": "Czech Republic", "keyword": "" ,"metaTitle": "","metaDescription": "","internationalName": "", "attributes":{"iso": "CZ", "iso3": "CZE", "numCode": 203, "phoneCode": 420}},
{"node": 58,"parentNode": 0, "sort": 57,"type": "country", "status": 1 ,"name": "Denmark", "keyword": "" ,"metaTitle": "","metaDescription": "","internationalName": "", "attributes":{"iso": "DK", "iso3": "DNK", "numCode": 208, "phoneCode": 45}},
{"node": 59,"parentNode": 0, "sort": 58,"type": "country", "status": 1 ,"name": "Djibouti", "keyword": "" ,"metaTitle": "","metaDescription": "","internationalName": "", "attributes":{"iso": "DJ", "iso3": "DJI", "numCode": 262, "phoneCode": 253}},
{"node": 60,"parentNode": 0, "sort": 59,"type": "country", "status": 1 ,"name": "Dominica", "keyword": "" ,"metaTitle": "","metaDescription": "","internationalName": "", "attributes":{"iso": "DM", "iso3": "DMA", "numCode": 212, "phoneCode": 1767}},
{"node": 61,"parentNode": 0, "sort": 60,"type": "country", "status": 1 ,"name": "Dominican Republic", "keyword": "" ,"metaTitle": "","metaDescription": "","internationalName": "", "attributes":{"iso": "DO", "iso3": "DOM", "numCode": 214, "phoneCode": 1809}},
{"node": 62,"parentNode": 0, "sort": 61,"type": "country", "status": 1 ,"name": "Ecuador", "keyword": "" ,"metaTitle": "","metaDescription": "","internationalName": "", "attributes":{"iso": "EC", "iso3": "ECU", "numCode": 218, "phoneCode": 593}},
{"node": 63,"parentNode": 0, "sort": 62,"type": "country", "status": 1 ,"name": "Egypt", "keyword": "" ,"metaTitle": "","metaDescription": "","internationalName": "", "attributes":{"iso": "EG", "iso3": "EGY", "numCode": 818, "phoneCode": 20}},
{"node": 64,"parentNode": 0, "sort": 63,"type": "country", "status": 1 ,"name": "El Salvador", "keyword": "" ,"metaTitle": "","metaDescription": "","internationalName": "", "attributes":{"iso": "SV", "iso3": "SLV", "numCode": 222, "phoneCode": 503}},
{"node": 65,"parentNode": 0, "sort": 64,"type": "country", "status": 1 ,"name": "Equatorial Guinea", "keyword": "" ,"metaTitle": "","metaDescription": "","internationalName": "", "attributes":{"iso": "GQ", "iso3": "GNQ", "numCode": 226, "phoneCode": 240}},
{"node": 66,"parentNode": 0, "sort": 65,"type": "country", "status": 1 ,"name": "Eritrea", "keyword": "" ,"metaTitle": "","metaDescription": "","internationalName": "", "attributes":{"iso": "ER", "iso3": "ERI", "numCode": 232, "phoneCode": 291}},
{"node": 67,"parentNode": 0, "sort": 66,"type": "country", "status": 1 ,"name": "Estonia", "keyword": "" ,"metaTitle": "","metaDescription": "","internationalName": "", "attributes":{"iso": "EE", "iso3": "EST", "numCode": 233, "phoneCode": 372}},
{"node": 68,"parentNode": 0, "sort": 67,"type": "country", "status": 1 ,"name": "Ethiopia", "keyword": "" ,"metaTitle": "","metaDescription": "","internationalName": "", "attributes":{"iso": "ET", "iso3": "ETH", "numCode": 231, "phoneCode": 251}},
{"node": 69,"parentNode": 0, "sort": 68,"type": "country", "status": 1 ,"name": "Falkland Islands (Malvinas)", "keyword": "" ,"metaTitle": "","metaDescription": "","internationalName": "", "attributes":{"iso": "FK", "iso3": "FLK", "numCode": 238, "phoneCode": 500}},
{"node": 70,"parentNode": 0, "sort": 69,"type": "country", "status": 1 ,"name": "Faroe Islands", "keyword": "" ,"metaTitle": "","metaDescription": "","internationalName": "", "attributes":{"iso": "FO", "iso3": "FRO", "numCode": 234, "phoneCode": 298}},
{"node": 71,"parentNode": 0, "sort": 70,"type": "country", "status": 1 ,"name": "Fiji", "keyword": "" ,"metaTitle": "","metaDescription": "","internationalName": "", "attributes":{"iso": "FJ", "iso3": "FJI", "numCode": 242, "phoneCode": 679}},
{"node": 72,"parentNode": 0, "sort": 71,"type": "country", "status": 1 ,"name": "Finland", "keyword": "" ,"metaTitle": "","metaDescription": "","internationalName": "", "attributes":{"iso": "FI", "iso3": "FIN", "numCode": 246, "phoneCode": 358}},
{"node": 73,"parentNode": 0, "sort": 72,"type": "country", "status": 1 ,"name": "France", "keyword": "" ,"metaTitle": "","metaDescription": "","internationalName": "", "attributes":{"iso": "FR", "iso3": "FRA", "numCode": 250, "phoneCode": 33}},
{"node": 74,"parentNode": 0, "sort": 73,"type": "country", "status": 1 ,"name": "French Guiana", "keyword": "" ,"metaTitle": "","metaDescription": "","internationalName": "", "attributes":{"iso": "GF", "iso3": "GUF", "numCode": 254, "phoneCode": 594}},
{"node": 75,"parentNode": 0, "sort": 74,"type": "country", "status": 1 ,"name": "French Polynesia", "keyword": "" ,"metaTitle": "","metaDescription": "","internationalName": "", "attributes":{"iso": "PF", "iso3": "PYF", "numCode": 258, "phoneCode": 689}},
{"node": 76,"parentNode": 0, "sort": 75,"type": "country", "status": 1 ,"name": "French Southern Territories", "keyword": "" ,"metaTitle": "","metaDescription": "","internationalName": "", "attributes":{"iso": "TF", "iso3": null, "numCode":  null, "phoneCode": 0}},
{"node": 77,"parentNode": 0, "sort": 76,"type": "country", "status": 1 ,"name": "Gabon", "keyword": "" ,"metaTitle": "","metaDescription": "","internationalName": "", "attributes":{"iso": "GA", "iso3": "GAB", "numCode": 266, "phoneCode": 241}},
{"node": 78,"parentNode": 0, "sort": 77,"type": "country", "status": 1 ,"name": "Gambia", "keyword": "" ,"metaTitle": "","metaDescription": "","internationalName": "", "attributes":{"iso": "GM", "iso3": "GMB", "numCode": 270, "phoneCode": 220}},
{"node": 79,"parentNode": 0, "sort": 78,"type": "country", "status": 1 ,"name": "Georgia", "keyword": "" ,"metaTitle": "","metaDescription": "","internationalName": "", "attributes":{"iso": "GE", "iso3": "GEO", "numCode": 268, "phoneCode": 995}},
{"node": 80,"parentNode": 0, "sort": 79,"type": "country", "status": 1 ,"name": "Germany", "keyword": "" ,"metaTitle": "","metaDescription": "","internationalName": "", "attributes":{"iso": "DE", "iso3": "DEU", "numCode": 276, "phoneCode": 49}},
{"node": 81,"parentNode": 0, "sort": 80,"type": "country", "status": 1 ,"name": "Ghana", "keyword": "" ,"metaTitle": "","metaDescription": "","internationalName": "", "attributes":{"iso": "GH", "iso3": "GHA", "numCode": 288, "phoneCode": 233}},
{"node": 82,"parentNode": 0, "sort": 81,"type": "country", "status": 1 ,"name": "Gibraltar", "keyword": "" ,"metaTitle": "","metaDescription": "","internationalName": "", "attributes":{"iso": "GI", "iso3": "GIB", "numCode": 292, "phoneCode": 350}},
{"node": 83,"parentNode": 0, "sort": 82,"type": "country", "status": 1 ,"name": "Greece", "keyword": "" ,"metaTitle": "","metaDescription": "","internationalName": "", "attributes":{"iso": "GR", "iso3": "GRC", "numCode": 300, "phoneCode": 30}},
{"node": 84,"parentNode": 0, "sort": 83,"type": "country", "status": 1 ,"name": "Greenland", "keyword": "" ,"metaTitle": "","metaDescription": "","internationalName": "", "attributes":{"iso": "GL", "iso3": "GRL", "numCode": 304, "phoneCode": 299}},
{"node": 85,"parentNode": 0, "sort": 84,"type": "country", "status": 1 ,"name": "Grenada", "keyword": "" ,"metaTitle": "","metaDescription": "","internationalName": "", "attributes":{"iso": "GD", "iso3": "GRD", "numCode": 308, "phoneCode": 1473}},
{"node": 86,"parentNode": 0, "sort": 85,"type": "country", "status": 1 ,"name": "Guadeloupe", "keyword": "" ,"metaTitle": "","metaDescription": "","internationalName": "", "attributes":{"iso": "GP", "iso3": "GLP", "numCode": 312, "phoneCode": 590}},
{"node": 87,"parentNode": 0, "sort": 86,"type": "country", "status": 1 ,"name": "Guam", "keyword": "" ,"metaTitle": "","metaDescription": "","internationalName": "", "attributes":{"iso": "GU", "iso3": "GUM", "numCode": 316, "phoneCode": 1671}},
{"node": 88,"parentNode": 0, "sort": 87,"type": "country", "status": 1 ,"name": "Guatemala", "keyword": "" ,"metaTitle": "","metaDescription": "","internationalName": "", "attributes":{"iso": "GT", "iso3": "GTM", "numCode": 320, "phoneCode": 502}},
{"node": 89,"parentNode": 0, "sort": 88,"type": "country", "status": 1 ,"name": "Guinea", "keyword": "" ,"metaTitle": "","metaDescription": "","internationalName": "", "attributes":{"iso": "GN", "iso3": "GIN", "numCode": 324, "phoneCode": 224}},
{"node": 90,"parentNode": 0, "sort": 89,"type": "country", "status": 1 ,"name": "Guinea-Bissau", "keyword": "" ,"metaTitle": "","metaDescription": "","internationalName": "", "attributes":{"iso": "GW", "iso3": "GNB", "numCode": 624, "phoneCode": 245}},
{"node": 91,"parentNode": 0, "sort": 90,"type": "country", "status": 1 ,"name": "Guyana", "keyword": "" ,"metaTitle": "","metaDescription": "","internationalName": "", "attributes":{"iso": "GY", "iso3": "GUY", "numCode": 328, "phoneCode": 592}},
{"node": 92,"parentNode": 0, "sort": 91,"type": "country", "status": 1 ,"name": "Haiti", "keyword": "" ,"metaTitle": "","metaDescription": "","internationalName": "", "attributes":{"iso": "HT", "iso3": "HTI", "numCode": 332, "phoneCode": 509}},
{"node": 93,"parentNode": 0, "sort": 92,"type": "country", "status": 1 ,"name": "Heard Island and Mcdonald Islands", "keyword": "" ,"metaTitle": "","metaDescription": "","internationalName": "", "attributes":{"iso": "HM", "iso3": null, "numCode":  null, "phoneCode": 0}},
{"node": 94,"parentNode": 0, "sort": 93,"type": "country", "status": 1 ,"name": "Holy See (Vatican City State)", "keyword": "" ,"metaTitle": "","metaDescription": "","internationalName": "", "attributes":{"iso": "VA", "iso3": "VAT", "numCode": 336, "phoneCode": 39}},
{"node": 95,"parentNode": 0, "sort": 94,"type": "country", "status": 1 ,"name": "Honduras", "keyword": "" ,"metaTitle": "","metaDescription": "","internationalName": "", "attributes":{"iso": "HN", "iso3": "HND", "numCode": 340, "phoneCode": 504}},
{"node": 96,"parentNode": 0, "sort": 95,"type": "country", "status": 1 ,"name": "Hong Kong", "keyword": "" ,"metaTitle": "","metaDescription": "","internationalName": "", "attributes":{"iso": "HK", "iso3": "HKG", "numCode": 344, "phoneCode": 852}},
{"node": 97,"parentNode": 0, "sort": 96,"type": "country", "status": 1 ,"name": "Hungary", "keyword": "" ,"metaTitle": "","metaDescription": "","internationalName": "", "attributes":{"iso": "HU", "iso3": "HUN", "numCode": 348, "phoneCode": 36}},
{"node": 98,"parentNode": 0, "sort": 97,"type": "country", "status": 1 ,"name": "Iceland", "keyword": "" ,"metaTitle": "","metaDescription": "","internationalName": "", "attributes":{"iso": "IS", "iso3": "ISL", "numCode": 352, "phoneCode": 354}},
{"node": 99,"parentNode": 0, "sort": 98,"type": "country", "status": 1 ,"name": "India", "keyword": "" ,"metaTitle": "","metaDescription": "","internationalName": "", "attributes":{"iso": "IN", "iso3": "IND", "numCode": 356, "phoneCode": 91}},
{"node": 100,"parentNode": 0, "sort":990,"type": "country", "status": 1 ,"name": "Indonesia", "keyword": "" ,"metaTitle": "","metaDescription": "","internationalName": "", "attributes":{"iso": "ID", "iso3": "IDN", "numCode": 360, "phoneCode": 62}},
{"node": 101,"parentNode": 0, "sort": 100,"type": "country", "status": 1 ,"name": "Iran, Islamic Republic of", "keyword": "" ,"metaTitle": "","metaDescription": "","internationalName": "", "attributes":{"iso": "IR", "iso3": "IRN", "numCode": 364, "phoneCode": 98}},
{"node": 102,"parentNode": 0, "sort": 101,"type": "country", "status": 1 ,"name": "Iraq", "keyword": "" ,"metaTitle": "","metaDescription": "","internationalName": "", "attributes":{"iso": "IQ", "iso3": "IRQ", "numCode": 368, "phoneCode": 964}},
{"node": 103,"parentNode": 0, "sort": 102,"type": "country", "status": 1 ,"name": "Ireland", "keyword": "" ,"metaTitle": "","metaDescription": "","internationalName": "", "attributes":{"iso": "IE", "iso3": "IRL", "numCode": 372, "phoneCode": 353}},
{"node": 104,"parentNode": 0, "sort": 103,"type": "country", "status": 1 ,"name": "Israel", "keyword": "" ,"metaTitle": "","metaDescription": "","internationalName": "", "attributes":{"iso": "IL", "iso3": "ISR", "numCode": 376, "phoneCode": 972}},
{"node": 105,"parentNode": 0, "sort": 104,"type": "country", "status": 1 ,"name": "Italy", "keyword": "" ,"metaTitle": "","metaDescription": "","internationalName": "", "attributes":{"iso": "IT", "iso3": "ITA", "numCode": 380, "phoneCode": 39}},
{"node": 106,"parentNode": 0, "sort": 105,"type": "country", "status": 1 ,"name": "Jamaica", "keyword": "" ,"metaTitle": "","metaDescription": "","internationalName": "", "attributes":{"iso": "JM", "iso3": "JAM", "numCode": 388, "phoneCode": 1876}},
{"node": 107,"parentNode": 0, "sort": 106,"type": "country", "status": 1 ,"name": "Japan", "keyword": "" ,"metaTitle": "","metaDescription": "","internationalName": "", "attributes":{"iso": "JP", "iso3": "JPN", "numCode": 392, "phoneCode": 81}},
{"node": 108,"parentNode": 0, "sort": 107,"type": "country", "status": 1 ,"name": "Jordan", "keyword": "" ,"metaTitle": "","metaDescription": "","internationalName": "", "attributes":{"iso": "JO", "iso3": "JOR", "numCode": 400, "phoneCode": 962}},
{"node": 109,"parentNode": 0, "sort": 108,"type": "country", "status": 1 ,"name": "Kazakhstan", "keyword": "" ,"metaTitle": "","metaDescription": "","internationalName": "", "attributes":{"iso": "KZ", "iso3": "KAZ", "numCode": 398, "phoneCode": 7}},
{"node": 110,"parentNode": 0, "sort": 109,"type": "country", "status": 1 ,"name": "Kenya", "keyword": "" ,"metaTitle": "","metaDescription": "","internationalName": "", "attributes":{"iso": "KE", "iso3": "KEN", "numCode": 404, "phoneCode": 254}},
{"node": 111,"parentNode": 0, "sort": 110,"type": "country", "status": 1 ,"name": "Kiribati", "keyword": "" ,"metaTitle": "","metaDescription": "","internationalName": "", "attributes":{"iso": "KI", "iso3": "KIR", "numCode": 296, "phoneCode": 686}},
{"node": 112,"parentNode": 0, "sort": 111,"type": "country", "status": 1 ,"name": "Korea, Democratic People's Republic of", "keyword": "" ,"metaTitle": "","metaDescription": "","internationalName": "", "attributes":{"iso": "KP", "iso3": "PRK", "numCode": 408, "phoneCode": 850}},
{"node": 113,"parentNode": 0, "sort": 112,"type": "country", "status": 1 ,"name": "Korea, Republic of", "keyword": "" ,"metaTitle": "","metaDescription": "","internationalName": "", "attributes":{"iso": "KR", "iso3": "KOR", "numCode": 410, "phoneCode": 82}},
{"node": 114,"parentNode": 0, "sort": 113,"type": "country", "status": 1 ,"name": "Kuwait", "keyword": "" ,"metaTitle": "","metaDescription": "","internationalName": "", "attributes":{"iso": "KW", "iso3": "KWT", "numCode": 414, "phoneCode": 965}},
{"node": 115,"parentNode": 0, "sort": 114,"type": "country", "status": 1 ,"name": "Kyrgyzstan", "keyword": "" ,"metaTitle": "","metaDescription": "","internationalName": "", "attributes":{"iso": "KG", "iso3": "KGZ", "numCode": 417, "phoneCode": 996}},
{"node": 116,"parentNode": 0, "sort": 115,"type": "country", "status": 1 ,"name": "Lao People's Democratic Republic", "keyword": "" ,"metaTitle": "","metaDescription": "","internationalName": "", "attributes":{"iso": "LA", "iso3": "LAO", "numCode": 418, "phoneCode": 856}},
{"node": 117,"parentNode": 0, "sort": 116,"type": "country", "status": 1 ,"name": "Latvia", "keyword": "" ,"metaTitle": "","metaDescription": "","internationalName": "", "attributes":{"iso": "LV", "iso3": "LVA", "numCode": 428, "phoneCode": 371}},
{"node": 118,"parentNode": 0, "sort": 117,"type": "country", "status": 1 ,"name": "Lebanon", "keyword": "" ,"metaTitle": "","metaDescription": "","internationalName": "", "attributes":{"iso": "LB", "iso3": "LBN", "numCode": 422, "phoneCode": 961}},
{"node": 119,"parentNode": 0, "sort": 118,"type": "country", "status": 1 ,"name": "Lesotho", "keyword": "" ,"metaTitle": "","metaDescription": "","internationalName": "", "attributes":{"iso": "LS", "iso3": "LSO", "numCode": 426, "phoneCode": 266}},
{"node": 120,"parentNode": 0, "sort": 119,"type": "country", "status": 1 ,"name": "Liberia", "keyword": "" ,"metaTitle": "","metaDescription": "","internationalName": "", "attributes":{"iso": "LR", "iso3": "LBR", "numCode": 430, "phoneCode": 231}},
{"node": 121,"parentNode": 0, "sort": 120,"type": "country", "status": 1 ,"name": "Libyan Arab Jamahiriya", "keyword": "" ,"metaTitle": "","metaDescription": "","internationalName": "", "attributes":{"iso": "LY", "iso3": "LBY", "numCode": 434, "phoneCode": 218}},
{"node": 122,"parentNode": 0, "sort": 121,"type": "country", "status": 1 ,"name": "Liechtenstein", "keyword": "" ,"metaTitle": "","metaDescription": "","internationalName": "", "attributes":{"iso": "LI", "iso3": "LIE", "numCode": 438, "phoneCode": 423}},
{"node": 123,"parentNode": 0, "sort": 122,"type": "country", "status": 1 ,"name": "Lithuania", "keyword": "" ,"metaTitle": "","metaDescription": "","internationalName": "", "attributes":{"iso": "LT", "iso3": "LTU", "numCode": 440, "phoneCode": 370}},
{"node": 124,"parentNode": 0, "sort": 123,"type": "country", "status": 1 ,"name": "Luxembourg", "keyword": "" ,"metaTitle": "","metaDescription": "","internationalName": "", "attributes":{"iso": "LU", "iso3": "LUX", "numCode": 442, "phoneCode": 352}},
{"node": 125,"parentNode": 0, "sort": 124,"type": "country", "status": 1 ,"name": "Macao", "keyword": "" ,"metaTitle": "","metaDescription": "","internationalName": "", "attributes":{"iso": "MO", "iso3": "MAC", "numCode": 446, "phoneCode": 853}},
{"node": 126,"parentNode": 0, "sort": 125,"type": "country", "status": 1 ,"name": "Macedonia, the Former Yugoslav Republic of", "keyword": "" ,"metaTitle": "","metaDescription": "","internationalName": "", "attributes":{"iso": "MK", "iso3": "MKD", "numCode": 807, "phoneCode": 389}},
{"node": 127,"parentNode": 0, "sort": 126,"type": "country", "status": 1 ,"name": "Madagascar", "keyword": "" ,"metaTitle": "","metaDescription": "","internationalName": "", "attributes":{"iso": "MG", "iso3": "MDG", "numCode": 450, "phoneCode": 261}},
{"node": 128,"parentNode": 0, "sort": 127,"type": "country", "status": 1 ,"name": "Malawi", "keyword": "" ,"metaTitle": "","metaDescription": "","internationalName": "", "attributes":{"iso": "MW", "iso3": "MWI", "numCode": 454, "phoneCode": 265}},
{"node": 129,"parentNode": 0, "sort": 128,"type": "country", "status": 1 ,"name": "Malaysia", "keyword": "" ,"metaTitle": "","metaDescription": "","internationalName": "", "attributes":{"iso": "MY", "iso3": "MYS", "numCode": 458, "phoneCode": 60}},
{"node": 130,"parentNode": 0, "sort": 129,"type": "country", "status": 1 ,"name": "Maldives", "keyword": "" ,"metaTitle": "","metaDescription": "","internationalName": "", "attributes":{"iso": "MV", "iso3": "MDV", "numCode": 462, "phoneCode": 960}},
{"node": 131,"parentNode": 0, "sort": 130,"type": "country", "status": 1 ,"name": "Mali", "keyword": "" ,"metaTitle": "","metaDescription": "","internationalName": "", "attributes":{"iso": "ML", "iso3": "MLI", "numCode": 466, "phoneCode": 223}},
{"node": 132,"parentNode": 0, "sort": 131,"type": "country", "status": 1 ,"name": "Malta", "keyword": "" ,"metaTitle": "","metaDescription": "","internationalName": "", "attributes":{"iso": "MT", "iso3": "MLT", "numCode": 470, "phoneCode": 356}},
{"node": 133,"parentNode": 0, "sort": 132,"type": "country", "status": 1 ,"name": "Marshall Islands", "keyword": "" ,"metaTitle": "","metaDescription": "","internationalName": "", "attributes":{"iso": "MH", "iso3": "MHL", "numCode": 584, "phoneCode": 692}},
{"node": 134,"parentNode": 0, "sort": 133,"type": "country", "status": 1 ,"name": "Martinique", "keyword": "" ,"metaTitle": "","metaDescription": "","internationalName": "", "attributes":{"iso": "MQ", "iso3": "MTQ", "numCode": 474, "phoneCode": 596}},
{"node": 135,"parentNode": 0, "sort": 134,"type": "country", "status": 1 ,"name": "Mauritania", "keyword": "" ,"metaTitle": "","metaDescription": "","internationalName": "", "attributes":{"iso": "MR", "iso3": "MRT", "numCode": 478, "phoneCode": 222}},
{"node": 136,"parentNode": 0, "sort": 135,"type": "country", "status": 1 ,"name": "Mauritius", "keyword": "" ,"metaTitle": "","metaDescription": "","internationalName": "", "attributes":{"iso": "MU", "iso3": "MUS", "numCode": 480, "phoneCode": 230}},
{"node": 137,"parentNode": 0, "sort": 136,"type": "country", "status": 1 ,"name": "Mayotte", "keyword": "" ,"metaTitle": "","metaDescription": "","internationalName": "", "attributes":{"iso": "YT", "iso3": null, "numCode":  null, "phoneCode": 269}},
{"node": 138,"parentNode": 0, "sort": 137,"type": "country", "status": 1 ,"name": "Mexico", "keyword": "" ,"metaTitle": "","metaDescription": "","internationalName": "", "attributes":{"iso": "MX", "iso3": "MEX", "numCode": 484, "phoneCode": 52}},
{"node": 139,"parentNode": 0, "sort": 138,"type": "country", "status": 1 ,"name": "Micronesia, Federated States of", "keyword": "" ,"metaTitle": "","metaDescription": "","internationalName": "", "attributes":{"iso": "FM", "iso3": "FSM", "numCode": 583, "phoneCode": 691}},
{"node": 140,"parentNode": 0, "sort": 139,"type": "country", "status": 1 ,"name": "Moldova, Republic of", "keyword": "" ,"metaTitle": "","metaDescription": "","internationalName": "", "attributes":{"iso": "MD", "iso3": "MDA", "numCode": 498, "phoneCode": 373}},
{"node": 141,"parentNode": 0, "sort": 140,"type": "country", "status": 1 ,"name": "Monaco", "keyword": "" ,"metaTitle": "","metaDescription": "","internationalName": "", "attributes":{"iso": "MC", "iso3": "MCO", "numCode": 492, "phoneCode": 377}},
{"node": 142,"parentNode": 0, "sort": 141,"type": "country", "status": 1 ,"name": "Mongolia", "keyword": "" ,"metaTitle": "","metaDescription": "","internationalName": "", "attributes":{"iso": "MN", "iso3": "MNG", "numCode": 496, "phoneCode": 976}},
{"node": 143,"parentNode": 0, "sort": 142,"type": "country", "status": 1 ,"name": "Montserrat", "keyword": "" ,"metaTitle": "","metaDescription": "","internationalName": "", "attributes":{"iso": "MS", "iso3": "MSR", "numCode": 500, "phoneCode": 1664}},
{"node": 144,"parentNode": 0, "sort": 143,"type": "country", "status": 1 ,"name": "Morocco", "keyword": "" ,"metaTitle": "","metaDescription": "","internationalName": "", "attributes":{"iso": "MA", "iso3": "MAR", "numCode": 504, "phoneCode": 212}},
{"node": 145,"parentNode": 0, "sort": 144,"type": "country", "status": 1 ,"name": "Mozambique", "keyword": "" ,"metaTitle": "","metaDescription": "","internationalName": "", "attributes":{"iso": "MZ", "iso3": "MOZ", "numCode": 508, "phoneCode": 258}},
{"node": 146,"parentNode": 0, "sort": 145,"type": "country", "status": 1 ,"name": "Myanmar", "keyword": "" ,"metaTitle": "","metaDescription": "","internationalName": "", "attributes":{"iso": "MM", "iso3": "MMR", "numCode": 104, "phoneCode": 95}},
{"node": 147,"parentNode": 0, "sort": 146,"type": "country", "status": 1 ,"name": "Namibia", "keyword": "" ,"metaTitle": "","metaDescription": "","internationalName": "", "attributes":{"iso": "NA", "iso3": "NAM", "numCode": 516, "phoneCode": 264}},
{"node": 148,"parentNode": 0, "sort": 147,"type": "country", "status": 1 ,"name": "Nauru", "keyword": "" ,"metaTitle": "","metaDescription": "","internationalName": "", "attributes":{"iso": "NR", "iso3": "NRU", "numCode": 520, "phoneCode": 674}},
{"node": 149,"parentNode": 0, "sort": 148,"type": "country", "status": 1 ,"name": "Nepal", "keyword": "" ,"metaTitle": "","metaDescription": "","internationalName": "", "attributes":{"iso": "NP", "iso3": "NPL", "numCode": 524, "phoneCode": 977}},
{"node": 150,"parentNode": 0, "sort": 149,"type": "country", "status": 1 ,"name": "Netherlands", "keyword": "" ,"metaTitle": "","metaDescription": "","internationalName": "", "attributes":{"iso": "NL", "iso3": "NLD", "numCode": 528, "phoneCode": 31}},
{"node": 151,"parentNode": 0, "sort": 150,"type": "country", "status": 1 ,"name": "Netherlands Antilles", "keyword": "" ,"metaTitle": "","metaDescription": "","internationalName": "", "attributes":{"iso": "AN", "iso3": "ANT", "numCode": 530, "phoneCode": 599}},
{"node": 152,"parentNode": 0, "sort": 151,"type": "country", "status": 1 ,"name": "New Caledonia", "keyword": "" ,"metaTitle": "","metaDescription": "","internationalName": "", "attributes":{"iso": "NC", "iso3": "NCL", "numCode": 540, "phoneCode": 687}},
{"node": 153,"parentNode": 0, "sort": 152,"type": "country", "status": 1 ,"name": "New Zealand", "keyword": "" ,"metaTitle": "","metaDescription": "","internationalName": "", "attributes":{"iso": "NZ", "iso3": "NZL", "numCode": 554, "phoneCode": 64}},
{"node": 154,"parentNode": 0, "sort": 153,"type": "country", "status": 1 ,"name": "Nicaragua", "keyword": "" ,"metaTitle": "","metaDescription": "","internationalName": "", "attributes":{"iso": "NI", "iso3": "NIC", "numCode": 558, "phoneCode": 505}},
{"node": 155,"parentNode": 0, "sort": 154,"type": "country", "status": 1 ,"name": "Niger", "keyword": "" ,"metaTitle": "","metaDescription": "","internationalName": "", "attributes":{"iso": "NE", "iso3": "NER", "numCode": 562, "phoneCode": 227}},
{"node": 156,"parentNode": 0, "sort": 155,"type": "country", "status": 1 ,"name": "Nigeria", "keyword": "" ,"metaTitle": "","metaDescription": "","internationalName": "", "attributes":{"iso": "NG", "iso3": "NGA", "numCode": 566, "phoneCode": 234}},
{"node": 157,"parentNode": 0, "sort": 156,"type": "country", "status": 1 ,"name": "Niue", "keyword": "" ,"metaTitle": "","metaDescription": "","internationalName": "", "attributes":{"iso": "NU", "iso3": "NIU", "numCode": 570, "phoneCode": 683}},
{"node": 158,"parentNode": 0, "sort": 157,"type": "country", "status": 1 ,"name": "Norfolk Island", "keyword": "" ,"metaTitle": "","metaDescription": "","internationalName": "", "attributes":{"iso": "NF", "iso3": "NFK", "numCode": 574, "phoneCode": 672}},
{"node": 159,"parentNode": 0, "sort": 158,"type": "country", "status": 1 ,"name": "Northern Mariana Islands", "keyword": "" ,"metaTitle": "","metaDescription": "","internationalName": "", "attributes":{"iso": "MP", "iso3": "MNP", "numCode": 580, "phoneCode": 1670}},
{"node": 160,"parentNode": 0, "sort": 159,"type": "country", "status": 1 ,"name": "Norway", "keyword": "" ,"metaTitle": "","metaDescription": "","internationalName": "", "attributes":{"iso": "NO", "iso3": "NOR", "numCode": 578, "phoneCode": 47}},
{"node": 161,"parentNode": 0, "sort": 160,"type": "country", "status": 1 ,"name": "Oman", "keyword": "" ,"metaTitle": "","metaDescription": "","internationalName": "", "attributes":{"iso": "OM", "iso3": "OMN", "numCode": 512, "phoneCode": 968}},
{"node": 162,"parentNode": 0, "sort": 161,"type": "country", "status": 1 ,"name": "Pakistan", "keyword": "" ,"metaTitle": "","metaDescription": "","internationalName": "", "attributes":{"iso": "PK", "iso3": "PAK", "numCode": 586, "phoneCode": 92}},
{"node": 163,"parentNode": 0, "sort": 162,"type": "country", "status": 1 ,"name": "Palau", "keyword": "" ,"metaTitle": "","metaDescription": "","internationalName": "", "attributes":{"iso": "PW", "iso3": "PLW", "numCode": 585, "phoneCode": 680}},
{"node": 164,"parentNode": 0, "sort": 163,"type": "country", "status": 1 ,"name": "Palestinian Territory, Occupied", "keyword": "" ,"metaTitle": "","metaDescription": "","internationalName": "", "attributes":{"iso": "PS", "iso3": null, "numCode":  null, "phoneCode": 970}},
{"node": 165,"parentNode": 0, "sort": 164,"type": "country", "status": 1 ,"name": "Panama", "keyword": "" ,"metaTitle": "","metaDescription": "","internationalName": "", "attributes":{"iso": "PA", "iso3": "PAN", "numCode": 591, "phoneCode": 507}},
{"node": 166,"parentNode": 0, "sort": 165,"type": "country", "status": 1 ,"name": "Papua New Guinea", "keyword": "" ,"metaTitle": "","metaDescription": "","internationalName": "", "attributes":{"iso": "PG", "iso3": "PNG", "numCode": 598, "phoneCode": 675}},
{"node": 167,"parentNode": 0, "sort": 166,"type": "country", "status": 1 ,"name": "Paraguay", "keyword": "" ,"metaTitle": "","metaDescription": "","internationalName": "", "attributes":{"iso": "PY", "iso3": "PRY", "numCode": 600, "phoneCode": 595}},
{"node": 168,"parentNode": 0, "sort": 167,"type": "country", "status": 1 ,"name": "Peru", "keyword": "" ,"metaTitle": "","metaDescription": "","internationalName": "", "attributes":{"iso": "PE", "iso3": "PER", "numCode": 604, "phoneCode": 51}},
{"node": 169,"parentNode": 0, "sort": 168,"type": "country", "status": 1 ,"name": "Philippines", "keyword": "" ,"metaTitle": "","metaDescription": "","internationalName": "", "attributes":{"iso": "PH", "iso3": "PHL", "numCode": 608, "phoneCode": 63}},
{"node": 170,"parentNode": 0, "sort": 169,"type": "country", "status": 1 ,"name": "Pitcairn", "keyword": "" ,"metaTitle": "","metaDescription": "","internationalName": "", "attributes":{"iso": "PN", "iso3": "PCN", "numCode": 612, "phoneCode": 0}},
{"node": 171,"parentNode": 0, "sort": 170,"type": "country", "status": 1 ,"name": "Poland", "keyword": "" ,"metaTitle": "","metaDescription": "","internationalName": "", "attributes":{"iso": "PL", "iso3": "POL", "numCode": 616, "phoneCode": 48}},
{"node": 172,"parentNode": 0, "sort": 171,"type": "country", "status": 1 ,"name": "Portugal", "keyword": "" ,"metaTitle": "","metaDescription": "","internationalName": "", "attributes":{"iso": "PT", "iso3": "PRT", "numCode": 620, "phoneCode": 351}},
{"node": 173,"parentNode": 0, "sort": 172,"type": "country", "status": 1 ,"name": "Puerto Rico", "keyword": "" ,"metaTitle": "","metaDescription": "","internationalName": "", "attributes":{"iso": "PR", "iso3": "PRI", "numCode": 630, "phoneCode": 1787}},
{"node": 174,"parentNode": 0, "sort": 173,"type": "country", "status": 1 ,"name": "Qatar", "keyword": "" ,"metaTitle": "","metaDescription": "","internationalName": "", "attributes":{"iso": "QA", "iso3": "QAT", "numCode": 634, "phoneCode": 974}},
{"node": 175,"parentNode": 0, "sort": 174,"type": "country", "status": 1 ,"name": "Reunion", "keyword": "" ,"metaTitle": "","metaDescription": "","internationalName": "", "attributes":{"iso": "RE", "iso3": "REU", "numCode": 638, "phoneCode": 262}},
{"node": 176,"parentNode": 0, "sort": 175,"type": "country", "status": 1 ,"name": "Romania", "keyword": "" ,"metaTitle": "","metaDescription": "","internationalName": "", "attributes":{"iso": "RO", "iso3": "ROM", "numCode": 642, "phoneCode": 40}},
{"node": 177,"parentNode": 0, "sort": 176,"type": "country", "status": 1 ,"name": "Russian Federation", "keyword": "" ,"metaTitle": "","metaDescription": "","internationalName": "", "attributes":{"iso": "RU", "iso3": "RUS", "numCode": 643, "phoneCode": 70}},
{"node": 178,"parentNode": 0, "sort": 177,"type": "country", "status": 1 ,"name": "Rwanda", "keyword": "" ,"metaTitle": "","metaDescription": "","internationalName": "", "attributes":{"iso": "RW", "iso3": "RWA", "numCode": 646, "phoneCode": 250}},
{"node": 179,"parentNode": 0, "sort": 178,"type": "country", "status": 1 ,"name": "Saint Helena", "keyword": "" ,"metaTitle": "","metaDescription": "","internationalName": "", "attributes":{"iso": "SH", "iso3": "SHN", "numCode": 654, "phoneCode": 290}},
{"node": 180,"parentNode": 0, "sort": 179,"type": "country", "status": 1 ,"name": "Saint Kitts and Nevis", "keyword": "" ,"metaTitle": "","metaDescription": "","internationalName": "", "attributes":{"iso": "KN", "iso3": "KNA", "numCode": 659, "phoneCode": 1869}},
{"node": 181,"parentNode": 0, "sort": 180,"type": "country", "status": 1 ,"name": "Saint Lucia", "keyword": "" ,"metaTitle": "","metaDescription": "","internationalName": "", "attributes":{"iso": "LC", "iso3": "LCA", "numCode": 662, "phoneCode": 1758}},
{"node": 182,"parentNode": 0, "sort": 181,"type": "country", "status": 1 ,"name": "Saint Pierre and Miquelon", "keyword": "" ,"metaTitle": "","metaDescription": "","internationalName": "", "attributes":{"iso": "PM", "iso3": "SPM", "numCode": 666, "phoneCode": 508}},
{"node": 183,"parentNode": 0, "sort": 182,"type": "country", "status": 1 ,"name": "Saint Vincent and the Grenadines", "keyword": "" ,"metaTitle": "","metaDescription": "","internationalName": "", "attributes":{"iso": "VC", "iso3": "VCT", "numCode": 670, "phoneCode": 1784}},
{"node": 184,"parentNode": 0, "sort": 183,"type": "country", "status": 1 ,"name": "Samoa", "keyword": "" ,"metaTitle": "","metaDescription": "","internationalName": "", "attributes":{"iso": "WS", "iso3": "WSM", "numCode": 882, "phoneCode": 684}},
{"node": 185,"parentNode": 0, "sort": 184,"type": "country", "status": 1 ,"name": "San Marino", "keyword": "" ,"metaTitle": "","metaDescription": "","internationalName": "", "attributes":{"iso": "SM", "iso3": "SMR", "numCode": 674, "phoneCode": 378}},
{"node": 186,"parentNode": 0, "sort": 185,"type": "country", "status": 1 ,"name": "Sao Tome and Principe", "keyword": "" ,"metaTitle": "","metaDescription": "","internationalName": "", "attributes":{"iso": "ST", "iso3": "STP", "numCode": 678, "phoneCode": 239}},
{"node": 187,"parentNode": 0, "sort": 186,"type": "country", "status": 1 ,"name": "Saudi Arabia", "keyword": "" ,"metaTitle": "","metaDescription": "","internationalName": "", "attributes":{"iso": "SA", "iso3": "SAU", "numCode": 682, "phoneCode": 966}},
{"node": 188,"parentNode": 0, "sort": 187,"type": "country", "status": 1 ,"name": "Senegal", "keyword": "" ,"metaTitle": "","metaDescription": "","internationalName": "", "attributes":{"iso": "SN", "iso3": "SEN", "numCode": 686, "phoneCode": 221}},
{"node": 189,"parentNode": 0, "sort": 188,"type": "country", "status": 1 ,"name": "Serbia and Montenegro", "keyword": "" ,"metaTitle": "","metaDescription": "","internationalName": "", "attributes":{"iso": "CS", "iso3": null, "numCode":  null, "phoneCode": 381}},
{"node": 190,"parentNode": 0, "sort": 189,"type": "country", "status": 1 ,"name": "Seychelles", "keyword": "" ,"metaTitle": "","metaDescription": "","internationalName": "", "attributes":{"iso": "SC", "iso3": "SYC", "numCode": 690, "phoneCode": 248}},
{"node": 191,"parentNode": 0, "sort": 190,"type": "country", "status": 1 ,"name": "Sierra Leone", "keyword": "" ,"metaTitle": "","metaDescription": "","internationalName": "", "attributes":{"iso": "SL", "iso3": "SLE", "numCode": 694, "phoneCode": 232}},
{"node": 192,"parentNode": 0, "sort": 191,"type": "country", "status": 1 ,"name": "Singapore", "keyword": "" ,"metaTitle": "","metaDescription": "","internationalName": "", "attributes":{"iso": "SG", "iso3": "SGP", "numCode": 702, "phoneCode": 65}},
{"node": 193,"parentNode": 0, "sort": 192,"type": "country", "status": 1 ,"name": "Slovakia", "keyword": "" ,"metaTitle": "","metaDescription": "","internationalName": "", "attributes":{"iso": "SK", "iso3": "SVK", "numCode": 703, "phoneCode": 421}},
{"node": 194,"parentNode": 0, "sort": 193,"type": "country", "status": 1 ,"name": "Slovenia", "keyword": "" ,"metaTitle": "","metaDescription": "","internationalName": "", "attributes":{"iso": "SI", "iso3": "SVN", "numCode": 705, "phoneCode": 386}},
{"node": 195,"parentNode": 0, "sort": 194,"type": "country", "status": 1 ,"name": "Solomon Islands", "keyword": "" ,"metaTitle": "","metaDescription": "","internationalName": "", "attributes":{"iso": "SB", "iso3": "SLB", "numCode": 90, "phoneCode": 677}},
{"node": 196,"parentNode": 0, "sort": 195,"type": "country", "status": 1 ,"name": "Somalia", "keyword": "" ,"metaTitle": "","metaDescription": "","internationalName": "", "attributes":{"iso": "SO", "iso3": "SOM", "numCode": 706, "phoneCode": 252}},
{"node": 197,"parentNode": 0, "sort": 196,"type": "country", "status": 1 ,"name": "South Africa", "keyword": "" ,"metaTitle": "","metaDescription": "","internationalName": "", "attributes":{"iso": "ZA", "iso3": "ZAF", "numCode": 710, "phoneCode": 27}},
{"node": 198,"parentNode": 0, "sort": 197,"type": "country", "status": 1 ,"name": "South Georgia and the South Sandwich Islands", "keyword": "" ,"metaTitle": "","metaDescription": "","internationalName": "", "attributes":{"iso": "GS", "iso3": null, "numCode":  null, "phoneCode": 0}},
{"node": 199,"parentNode": 0, "sort": 198,"type": "country", "status": 1 ,"name": "Spain", "keyword": "" ,"metaTitle": "","metaDescription": "","internationalName": "", "attributes":{"iso": "ES", "iso3": "ESP", "numCode": 724, "phoneCode": 34}},
{"node": 200,"parentNode": 0, "sort": 199,"type": "country", "status": 1 ,"name": "Sri Lanka", "keyword": "" ,"metaTitle": "","metaDescription": "","internationalName": "", "attributes":{"iso": "LK", "iso3": "LKA", "numCode": 144, "phoneCode": 94}},
{"node": 201,"parentNode": 0, "sort": 200,"type": "country", "status": 1 ,"name": "Sudan", "keyword": "" ,"metaTitle": "","metaDescription": "","internationalName": "", "attributes":{"iso": "SD", "iso3": "SDN", "numCode": 736, "phoneCode": 249}},
{"node": 202,"parentNode": 0, "sort": 201,"type": "country", "status": 1 ,"name": "Suriname", "keyword": "" ,"metaTitle": "","metaDescription": "","internationalName": "", "attributes":{"iso": "SR", "iso3": "SUR", "numCode": 740, "phoneCode": 597}},
{"node": 203,"parentNode": 0, "sort": 202,"type": "country", "status": 1 ,"name": "Svalbard and Jan Mayen", "keyword": "" ,"metaTitle": "","metaDescription": "","internationalName": "", "attributes":{"iso": "SJ", "iso3": "SJM", "numCode": 744, "phoneCode": 47}},
{"node": 204,"parentNode": 0, "sort": 203,"type": "country", "status": 1 ,"name": "Swaziland", "keyword": "" ,"metaTitle": "","metaDescription": "","internationalName": "", "attributes":{"iso": "SZ", "iso3": "SWZ", "numCode": 748, "phoneCode": 268}},
{"node": 205,"parentNode": 0, "sort": 204,"type": "country", "status": 1 ,"name": "Sweden", "keyword": "" ,"metaTitle": "","metaDescription": "","internationalName": "", "attributes":{"iso": "SE", "iso3": "SWE", "numCode": 752, "phoneCode": 46}},
{"node": 206,"parentNode": 0, "sort": 205,"type": "country", "status": 1 ,"name": "Switzerland", "keyword": "" ,"metaTitle": "","metaDescription": "","internationalName": "", "attributes":{"iso": "CH", "iso3": "CHE", "numCode": 756, "phoneCode": 41}},
{"node": 207,"parentNode": 0, "sort": 206,"type": "country", "status": 1 ,"name": "Syrian Arab Republic", "keyword": "" ,"metaTitle": "","metaDescription": "","internationalName": "", "attributes":{"iso": "SY", "iso3": "SYR", "numCode": 760, "phoneCode": 963}},
{"node": 208,"parentNode": 0, "sort": 207,"type": "country", "status": 1 ,"name": "Taiwan, Province of China", "keyword": "" ,"metaTitle": "","metaDescription": "","internationalName": "", "attributes":{"iso": "TW", "iso3": "TWN", "numCode": 158, "phoneCode": 886}},
{"node": 209,"parentNode": 0, "sort": 208,"type": "country", "status": 1 ,"name": "Tajikistan", "keyword": "" ,"metaTitle": "","metaDescription": "","internationalName": "", "attributes":{"iso": "TJ", "iso3": "TJK", "numCode": 762, "phoneCode": 992}},
{"node": 210,"parentNode": 0, "sort": 209,"type": "country", "status": 1 ,"name": "Tanzania, United Republic of", "keyword": "" ,"metaTitle": "","metaDescription": "","internationalName": "", "attributes":{"iso": "TZ", "iso3": "TZA", "numCode": 834, "phoneCode": 255}},
{"node": 211,"parentNode": 0, "sort": 210,"type": "country", "status": 1 ,"name": "Thailand", "keyword": "" ,"metaTitle": "","metaDescription": "","internationalName": "", "attributes":{"iso": "TH", "iso3": "THA", "numCode": 764, "phoneCode": 66}},
{"node": 212,"parentNode": 0, "sort": 211,"type": "country", "status": 1 ,"name": "Timor-Leste", "keyword": "" ,"metaTitle": "","metaDescription": "","internationalName": "", "attributes":{"iso": "TL", "iso3": null, "numCode":  null, "phoneCode": 670}},
{"node": 213,"parentNode": 0, "sort": 212,"type": "country", "status": 1 ,"name": "Togo", "keyword": "" ,"metaTitle": "","metaDescription": "","internationalName": "", "attributes":{"iso": "TG", "iso3": "TGO", "numCode": 768, "phoneCode": 228}},
{"node": 214,"parentNode": 0, "sort": 213,"type": "country", "status": 1 ,"name": "Tokelau", "keyword": "" ,"metaTitle": "","metaDescription": "","internationalName": "", "attributes":{"iso": "TK", "iso3": "TKL", "numCode": 772, "phoneCode": 690}},
{"node": 215,"parentNode": 0, "sort": 214,"type": "country", "status": 1 ,"name": "Tonga", "keyword": "" ,"metaTitle": "","metaDescription": "","internationalName": "", "attributes":{"iso": "TO", "iso3": "TON", "numCode": 776, "phoneCode": 676}},
{"node": 216,"parentNode": 0, "sort": 215,"type": "country", "status": 1 ,"name": "Trinidad and Tobago", "keyword": "" ,"metaTitle": "","metaDescription": "","internationalName": "", "attributes":{"iso": "TT", "iso3": "TTO", "numCode": 780, "phoneCode": 1868}},
{"node": 217,"parentNode": 0, "sort": 216,"type": "country", "status": 1 ,"name": "Tunisia", "keyword": "" ,"metaTitle": "","metaDescription": "","internationalName": "", "attributes":{"iso": "TN", "iso3": "TUN", "numCode": 788, "phoneCode": 216}},
{"node": 218,"parentNode": 0, "sort": 217,"type": "country", "status": 1 ,"name": "Turkey", "keyword": "" ,"metaTitle": "","metaDescription": "","internationalName": "", "attributes":{"iso": "TR", "iso3": "TUR", "numCode": 792, "phoneCode": 90}},
{"node": 219,"parentNode": 0, "sort": 218,"type": "country", "status": 1 ,"name": "Turkmenistan", "keyword": "" ,"metaTitle": "","metaDescription": "","internationalName": "", "attributes":{"iso": "TM", "iso3": "TKM", "numCode": 795, "phoneCode": 7370}},
{"node": 220,"parentNode": 0, "sort": 219,"type": "country", "status": 1 ,"name": "Turks and Caicos Islands", "keyword": "" ,"metaTitle": "","metaDescription": "","internationalName": "", "attributes":{"iso": "TC", "iso3": "TCA", "numCode": 796, "phoneCode": 1649}},
{"node": 221,"parentNode": 0, "sort": 220,"type": "country", "status": 1 ,"name": "Tuvalu", "keyword": "" ,"metaTitle": "","metaDescription": "","internationalName": "", "attributes":{"iso": "TV", "iso3": "TUV", "numCode": 798, "phoneCode": 688}},
{"node": 222,"parentNode": 0, "sort": 221,"type": "country", "status": 1 ,"name": "Uganda", "keyword": "" ,"metaTitle": "","metaDescription": "","internationalName": "", "attributes":{"iso": "UG", "iso3": "UGA", "numCode": 800, "phoneCode": 256}},
{"node": 223,"parentNode": 0, "sort": 222,"type": "country", "status": 1 ,"name": "Ukraine", "keyword": "" ,"metaTitle": "","metaDescription": "","internationalName": "", "attributes":{"iso": "UA", "iso3": "UKR", "numCode": 804, "phoneCode": 380}},
{"node": 224,"parentNode": 0, "sort": 223,"type": "country", "status": 1 ,"name": "United Arab Emirates", "keyword": "" ,"metaTitle": "","metaDescription": "","internationalName": "", "attributes":{"iso": "AE", "iso3": "ARE", "numCode": 784, "phoneCode": 971}},
{"node": 225,"parentNode": 0, "sort": 224,"type": "country", "status": 1 ,"name": "United Kingdom", "keyword": "" ,"metaTitle": "","metaDescription": "","internationalName": "", "attributes":{"iso": "GB", "iso3": "GBR", "numCode": 826, "phoneCode": 44}},
{"node": 226,"parentNode": 0, "sort": 225,"type": "country", "status": 1 ,"name": "United States", "keyword": "" ,"metaTitle": "","metaDescription": "","internationalName": "", "attributes":{"iso": "US", "iso3": "USA", "numCode": 840, "phoneCode": 1}},
{"node": 227,"parentNode": 0, "sort": 226,"type": "country", "status": 1 ,"name": "United States Minor Outlying Islands", "keyword": "" ,"metaTitle": "","metaDescription": "","internationalName": "", "attributes":{"iso": "UM", "iso3": null, "numCode":  null, "phoneCode": 1}},
{"node": 228,"parentNode": 0, "sort": 227,"type": "country", "status": 1 ,"name": "Uruguay", "keyword": "" ,"metaTitle": "","metaDescription": "","internationalName": "", "attributes":{"iso": "UY", "iso3": "URY", "numCode": 858, "phoneCode": 598}},
{"node": 229,"parentNode": 0, "sort": 228,"type": "country", "status": 1 ,"name": "Uzbekistan", "keyword": "" ,"metaTitle": "","metaDescription": "","internationalName": "", "attributes":{"iso": "UZ", "iso3": "UZB", "numCode": 860, "phoneCode": 998}},
{"node": 230,"parentNode": 0, "sort": 229,"type": "country", "status": 1 ,"name": "Vanuatu", "keyword": "" ,"metaTitle": "","metaDescription": "","internationalName": "", "attributes":{"iso": "VU", "iso3": "VUT", "numCode": 548, "phoneCode": 678}},
{"node": 231,"parentNode": 0, "sort": 230,"type": "country", "status": 1 ,"name": "Venezuela", "keyword": "" ,"metaTitle": "","metaDescription": "","internationalName": "", "attributes":{"iso": "VE", "iso3": "VEN", "numCode": 862, "phoneCode": 58}},
{"node": 232,"parentNode": 0, "sort": 231,"type": "country", "status": 1 ,"name": "Viet Nam", "keyword": "" ,"metaTitle": "","metaDescription": "","internationalName": "", "attributes":{"iso": "VN", "iso3": "VNM", "numCode": 704, "phoneCode": 84}},
{"node": 233,"parentNode": 0, "sort": 232,"type": "country", "status": 1 ,"name": "Virgin Islands, British", "keyword": "" ,"metaTitle": "","metaDescription": "","internationalName": "", "attributes":{"iso": "VG", "iso3": "VGB", "numCode": 92, "phoneCode": 1284}},
{"node": 234,"parentNode": 0, "sort": 233,"type": "country", "status": 1 ,"name": "Virgin Islands, U.s.", "keyword": "" ,"metaTitle": "","metaDescription": "","internationalName": "", "attributes":{"iso": "VI", "iso3": "VIR", "numCode": 850, "phoneCode": 1340}},
{"node": 235,"parentNode": 0, "sort": 234,"type": "country", "status": 1 ,"name": "Wallis and Futuna", "keyword": "" ,"metaTitle": "","metaDescription": "","internationalName": "", "attributes":{"iso": "WF", "iso3": "WLF", "numCode": 876, "phoneCode": 681}},
{"node": 236,"parentNode": 0, "sort": 235,"type": "country", "status": 1 ,"name": "Western Sahara", "keyword": "" ,"metaTitle": "","metaDescription": "","internationalName": "", "attributes":{"iso": "EH", "iso3": "ESH", "numCode": 732, "phoneCode": 212}},
{"node": 237,"parentNode": 0, "sort": 236,"type": "country", "status": 1 ,"name": "Yemen", "keyword": "" ,"metaTitle": "","metaDescription": "","internationalName": "", "attributes":{"iso": "YE", "iso3": "YEM", "numCode": 887, "phoneCode": 967}},
{"node": 238,"parentNode": 0, "sort": 237,"type": "country", "status": 1 ,"name": "Zambia", "keyword": "" ,"metaTitle": "","metaDescription": "","internationalName": "", "attributes":{"iso": "ZM", "iso3": "ZMB", "numCode": 894, "phoneCode": 260}},
{"node": 239,"parentNode": 0, "sort": 238,"type": "country", "status": 1 ,"name": "Zimbabwe", "keyword": "" ,"metaTitle": "","metaDescription": "","internationalName": "", "attributes":{"iso": "ZW", "iso3": "ZWE", "numCode": 716, "phoneCode": 263}}
]